{
  "name": "brain-stt-train",
  "configFiles": [
    {
      "dir": "etc",
      "mappings": [
        {
          "template": "brain-stt-train.conf.in",
          "useReserved": true
        }
      ]
    },
    {
      "dir": "etc/supervisor/conf.d",
      "mappings": [
        {
          "template": "brain-stt-train.conf.in"
        }
      ]
    }
  ],
  "variables": [
    {
      "variable": "LOGS_DIR",
      "description": "logs directory",
      "default_value": "${MAUM_ROOT}/logs"
    }
  ]
}
